Vignette Writeup
…
    Author

             Name 

    Updated

      December 7, 2022

Executive summary

Time series anomaly detection and change-point on the univariate (potentially multivariate case) for time series economic data from LA concerning unemployment.

Data description

# A tibble: 385 × 23
   DATE  unemp…¹ avg_p…² avg_p…³ civil…⁴ unemp…⁵ new_p…⁶ home_…⁷ allem…⁸ allem…⁹
   <chr>   <dbl>   <dbl>   <dbl>   <dbl>   <dbl>   <dbl>   <dbl>   <dbl>   <dbl>
 1 1990…     5.6   0.108   0.988     0.2    -4.3   4649.     0.4     0.1    -1.2
 2 1990…     5.4   0.108   1.01      0.1    -3.8   3628.     0.2    -0.1    -1.1
 3 1990…     5.5   0.108   1.03     -0.4     1     3833.    -0.1    -0.2    -3.7
 4 1990…     5.4   0.107   1.08      0.4    -0.9   3466.    -1.1    -0.2    -1.3
 5 1990…     5.4   0.108   1.10      0      -0.5   3497.    -0.3    -0.3    -0.9
 6 1990…     6.2   0.108   1.13      0.5    15.2   2796.    -0.9    -0.4    -1.2
 7 1990…     6.2   0.108   1.28     -0.4     0.2   2466.    -0.6    -0.4    -1.8
 8 1990…     6.3   0.108   1.35     -1.4     0.4   2357.    -0.9    -0.4    -0.4
 9 1990…     6.2   0.109   1.42     -0.1    -2.3   2173.    -0.6    -0.1    -1.5
10 1990…     6.5   0.11    1.42     -0.5     3.7   2267.    -1.2    -0.2    -1.2
# … with 375 more rows, 13 more variables: allemployee_manu_la_pch <dbl>,
#   allemployee_finan_la_pch <dbl>, allemployee_leisure_la_pch <dbl>,
#   govn_social_insu_pch <dbl>, compen_employee_wage_pch <dbl>,
#   real_disp_inc_per_capital_pch <dbl>, bbk_real_gdp <dbl>,
#   pers_consum_expen_pch <dbl>, pers_saving_rate_us <dbl>,
#   pers_current_tax_chg <dbl>, govn_social_ben_toperson_pch <dbl>,
#   federal_fund_eff_rate_us <dbl>, X30_year_fixed_mortgage_us <dbl>, and …
…
